<?xml version="1.0" encoding="utf-8"?>
<!-- Generator: Adobe Illustrator 19.2.0, SVG Export Plug-In . SVG Version: 6.00 Build 0)  -->
<svg version="1.1" id="Слой_1" xmlns="http://www.w3.org/2000/svg" xmlns:xlink="http://www.w3.org/1999/xlink" x="0px" y="0px"
	 viewBox="0 0 247.9 57.7" style="enable-background:new 0 0 247.9 57.7;" xml:space="preserve">
<style type="text/css">
	.st0{fill:#CB1517;}
	.st1{fill:#1D1D1B;}
</style>
<g id="Layer0_0_FILL_3_">
	<path class="st0" d="M9.1,9.8C4.1,14.9,1.6,21,1.6,28.1c0,7.2,2.5,13.3,7.6,18.3c5.1,5.1,11.2,7.6,18.3,7.6c4.6,0,8.8-1.1,12.6-3.2
		l5.2,5.2l10.1-10.1l-5.2-5.2c2.1-3.8,3.2-8,3.2-12.6c0-7.2-2.5-13.3-7.6-18.3c-5.1-5.1-11.2-7.6-18.3-7.6
		C20.3,2.2,14.2,4.7,9.1,9.8 M19.4,20c2.2-2.2,4.9-3.3,8.1-3.3c3.2,0,5.9,1.1,8.1,3.3c2.2,2.2,3.4,4.9,3.4,8.1c0,0.4,0,0.8-0.1,1.3
		c-1.2,6.1-4.5,9.4-10.1,10.1c-0.4,0.1-0.8,0.1-1.3,0.1c-0.1,0-0.2,0-0.3,0c-3-0.1-5.6-1.2-7.7-3.4C17.2,34,16,31.3,16,28.1
		C16,25,17.2,22.3,19.4,20"/>
</g>
<g>
	<path class="st1" d="M80.1,47.5h-5.6v-10c-0.6,1-1.2,1.7-1.9,2c-0.6,0.3-1.9,0.5-3.8,0.5c-3.1,0-5.2-0.4-6.2-1.2
		c-1-0.8-1.4-2.5-1.4-5.2v-6.4c0-2.5,0.6-4.2,1.8-5.1c1.2-0.8,3.7-1.3,7.5-1.3c1.5,0,2.8,0.1,3.8,0.2c1.1,0.1,1.9,0.3,2.6,0.6
		c0.7,0.3,1.2,0.6,1.6,0.9c0.4,0.3,0.7,0.8,0.9,1.4c0.2,0.6,0.3,1.2,0.4,1.7c0.1,0.5,0.1,1.3,0.1,2.2V47.5z M74.5,34v-7.3
		c0-0.9-0.2-1.6-0.7-2c-0.5-0.4-1.6-0.6-3.2-0.6c-1.7,0-2.8,0.2-3.2,0.5c-0.4,0.3-0.6,1-0.6,2.1v7.1c0,1,0.2,1.7,0.6,2.1
		c0.4,0.4,1.4,0.6,2.9,0.6c1.8,0,3-0.2,3.5-0.5C74.3,35.7,74.5,35,74.5,34z"/>
	<path class="st1" d="M103.1,27.8v5.4c0,1.2-0.2,2.2-0.6,3.1c-0.4,0.8-0.8,1.5-1.4,2c-0.6,0.5-1.3,0.8-2.2,1.1
		c-0.9,0.3-1.7,0.4-2.5,0.5c-0.7,0.1-1.7,0.1-2.7,0.1c-1.1,0-2,0-2.7-0.1c-0.7-0.1-1.6-0.2-2.5-0.5c-0.9-0.3-1.6-0.6-2.2-1.1
		c-0.6-0.5-1-1.1-1.4-2c-0.4-0.8-0.6-1.9-0.6-3.1v-5.4c0-1.3,0.2-2.4,0.6-3.3c0.4-0.9,0.9-1.6,1.4-2.1c0.6-0.5,1.3-0.9,2.2-1.1
		c0.9-0.3,1.7-0.4,2.5-0.5c0.7-0.1,1.6-0.1,2.6-0.1c1,0,1.9,0,2.6,0.1c0.7,0.1,1.5,0.2,2.5,0.5c0.9,0.3,1.7,0.6,2.2,1.1
		c0.6,0.5,1.1,1.2,1.4,2.1C102.9,25.5,103.1,26.5,103.1,27.8z M97.6,33.9v-7c0-1-0.3-1.7-0.8-2.1c-0.5-0.4-1.5-0.6-3-0.6
		c-1.5,0-2.5,0.2-3,0.6c-0.5,0.4-0.8,1.1-0.8,2.1v7c0,1,0.2,1.6,0.7,2c0.5,0.4,1.5,0.6,3.1,0.6c1.5,0,2.6-0.2,3.1-0.6
		C97.3,35.5,97.6,34.9,97.6,33.9z"/>
	<path class="st1" d="M119.5,25.4h-1.9c-1.5,0-2.7,0.2-3.4,0.7c-0.8,0.5-1.2,1.3-1.2,2.4v11.1h-5.6V21.2h5.3v3.2
		c0-0.9,0.6-1.7,1.6-2.5c1-0.7,2.1-1.1,3.2-1.1h2V25.4z"/>
	<path class="st1" d="M139.9,31.8H128v1.7c0,1,0.4,1.8,1.1,2.3c0.7,0.5,2.1,0.7,4.1,0.7c1.8,0,3.9-0.3,6.2-0.8v3.5
		c-2.3,0.5-4.7,0.7-7.2,0.7c-6.5,0-9.8-2-9.8-6v-6.6c0-2.4,0.8-4,2.3-5.1c1.5-1,3.8-1.5,6.8-1.5c2.8,0,5,0.5,6.3,1.4
		c1.4,1,2.1,2.7,2.1,5.1V31.8z M134.6,28.7V26c0-0.6-0.2-1-0.7-1.3c-0.5-0.3-1.3-0.5-2.5-0.5c-1.3,0-2.2,0.2-2.7,0.5
		c-0.5,0.3-0.7,0.8-0.7,1.3v2.7H134.6z"/>
</g>
<g>
	<path class="st1" d="M151.5,40.1h-7v-6.2h7V40.1z"/>
	<path class="st1" d="M178.2,39.6c-3.3,0.7-6.4,1-9.4,1c-1.2,0-2.3-0.1-3.4-0.2c-1.1-0.1-2.2-0.3-3.5-0.7c-1.3-0.3-2.4-0.8-3.3-1.4
		c-0.9-0.6-1.7-1.4-2.3-2.5c-0.6-1.1-0.9-2.3-0.9-3.7V19.4c0-5.8,4.5-8.8,13.4-8.8c2.2,0,5.3,0.3,9.2,1v5.2
		c-3.5-0.8-6.6-1.3-9.1-1.3c-1,0-1.8,0-2.5,0.1c-0.6,0.1-1.3,0.2-2,0.4c-0.7,0.2-1.2,0.6-1.6,1.1c-0.3,0.5-0.5,1.2-0.5,2v12.3
		c0,2.6,2.4,3.9,7.2,3.9c2.1,0,5-0.4,8.7-1.3V39.6z"/>
	<path class="st1" d="M216.1,40.1h-6.3V18.7h-0.1l-7.3,21.4h-5.6l-7.5-21.4H189v21.4h-6.4v-29h9.9l7.1,20.7l7.1-20.7h9.3V40.1z"/>
	<path class="st1" d="M244.6,29.9v1.9c0,1.7-0.3,3.2-0.9,4.4c-0.6,1.2-1.5,2.1-2.8,2.7c-1.2,0.6-2.6,1-4,1.3
		c-1.4,0.3-3.2,0.4-5.2,0.4c-2.8,0-6.2-0.3-10.3-0.8v-5.3c4.9,0.8,8.4,1.2,10.4,1.2c3.9,0,5.8-1,5.8-3v-1.9c0-0.9-0.3-1.6-0.8-2.1
		c-0.5-0.6-1.5-0.8-3-0.8h-3.4c-6.4,0-9.6-2.5-9.6-7.6V18c0-2.5,1-4.4,3.1-5.6c2.1-1.2,5.5-1.8,10.1-1.8c2.2,0,5.3,0.2,9.1,0.6v5.2
		c-4.5-0.5-7.6-0.8-9.3-0.8c-2.3,0-3.9,0.2-4.7,0.6c-0.9,0.4-1.3,1-1.3,2v2.1c0,1.5,1.3,2.3,3.8,2.3h3.5c3.4,0,5.8,0.6,7.3,1.9
		C243.9,25.6,244.6,27.5,244.6,29.9z"/>
</g>
</svg>
